{
    "source": "releases",
    "sourceScope": "GitHub",
    "generatedAt": "2026-04-27T23:20:43+00:00",
    "count": 76,
    "pageSize": 10,
    "pageNumber": 2,
    "pageCount": 8,
    "repository": {
        "owner": "municipio-se",
        "name": "municipio-deployment",
        "fullName": "municipio-se/municipio-deployment",
        "description": "",
        "url": "https://github.com/municipio-se/municipio-deployment"
    },
    "items": [
        {
            "title": "Municipio 5.4.9",
            "version": "5.4.9",
            "body": "## Municipio 5.4.9\r\n\r\nVersion **5.4.9** of Municipio is a maintenance release that fixes some minor bugs and includes improvements to image handling.\r\n\r\n---\r\n\r\n### \ud83c\udfa8 Municipio Theme (5.175.3 \u2192 5.175.6)\r\n\r\n- Updated image rendering on Schools, making images display within a slider for better presentation.",
            "url": "https://github.com/municipio-se/municipio-deployment/releases/tag/5.4.9",
            "publishedAt": "2025-10-16T11:14:17Z",
            "isPrerelease": false,
            "isDraft": false
        },
        {
            "title": "Release 5.4.8",
            "version": "5.4.8",
            "body": "## Municipio 5.4.8\r\n\r\nVersion **5.4.8** of Municipio is a maintenance release that fixes some minor bugs and includes improvements across Modularity, the Municipio Theme, Component Library, and supporting plugins.\r\n\r\n---\r\n\r\n### \ud83e\udde9 Modularity (6.90.26 \u2192 6.90.36)\r\n\r\n- Improved security by cleaning and sanitizing post excerpts.  \r\n- Fixed an issue where pagination for posts could return outdated results due to caching.  \r\n- Enabled videos to be used as links in sliders.  \r\n- Updated and simplified the menu module\u2019s notification message.  \r\n- Removed unnecessary choice options from the menu module.  \r\n- Corrected language and text for menu notices.  \r\n- Fixed styling and behavior of the date badge.  \r\n- Removed the profile URL to prevent unwanted links from appearing.  \r\n- Improved layout handling by removing automatic column calculations.  \r\n- Fixed placement issues in the menu module.  \r\n\r\n---\r\n\r\n### \ud83c\udfa8 Municipio Theme (5.172.31 \u2192 5.175.3)\r\n\r\n- Fixed an issue where image normalization ran in the wrong order.  \r\n- Reduced complexity and improved structure in the Singular Event Controller.  \r\n- Updated and improved translations across the system.  \r\n- Added support to display event details based on occasions found in the event schedule.  \r\n- Upgraded the test framework for better reliability.  \r\n- Removed unused development dependencies.  \r\n- Removed outdated PHPUnit watcher configuration.  \r\n- Fixed an issue where getting queried objects could fail unexpectedly.  \r\n- Removed unnecessary test coverage files from version control.  \r\n- Fixed errors in the event schema for better data consistency.  \r\n- Ensured filters run correctly when generating intermediate image files.  \r\n- Added missing translations.  \r\n- Fixed an issue with event calendar links pointing to incorrect occasions.  \r\n- Improved file handling by removing unnecessary caching.  \r\n- Added support for multiple locations in schools and preschools.  \r\n- Suppressed non-critical warnings when normalizing images.  \r\n- Allowed administrators to manually synchronize external content.  \r\n- Fixed layout and display issues in the date badge.  \r\n- Added a new controller and view for event archives.  \r\n- Added a new customization section for the date badge.  \r\n- Removed duplicate code for `employmentType` and `datePosted`.  \r\n- Updated style guide.  \r\n- Improved namespacing in Schema controllers.  \r\n\r\n---\r\n\r\n### \ud83e\uddf1 Component Library (4.62.4 \u2192 4.62.13)\r\n\r\n- Fixed an issue that caused errors when counting certain data types.  \r\n- Corrected faulty test code related to maximum image size.  \r\n- Cleaned up article text by removing unsafe or invalid links.  \r\n- Fixed a problem where multiple files were added automatically when uploading.  \r\n- Fixed a button issue to ensure \u201cresolve\u201d actions work properly.  \r\n- Removed an incorrect parameter from video notices.  \r\n- Allowed slider items to include a call-to-action button even when no title is set.  \r\n- Adjusted menus so border styling only applies to top-level items.  \r\n- Improved the appearance and structure of the date badge.  \r\n- Updated and stabilized internal tests.  \r\n- Prevented segments from rendering empty elements.  \r\n\r\n---\r\n\r\n### \u2699\ufe0f WordPress Core (6.8.3)\r\n\r\n- Updated WordPress to **6.8.3**, which includes important security and bug fixes.\r\n\r\n---\r\n\r\n### \u2601\ufe0f S3 Local Index (1.1.20)\r\n\r\n- Added **S3 Local Index** plugin, which creates a local index of an S3 bucket to reduce the number of external calls to S3 or Swift storage.",
            "url": "https://github.com/municipio-se/municipio-deployment/releases/tag/5.4.8",
            "publishedAt": "2025-10-16T11:06:33Z",
            "isPrerelease": false,
            "isDraft": false
        },
        {
            "title": "Release 5.4.7",
            "version": "5.4.7",
            "body": "# Release Notes\r\n\r\n## Modularity (6.90.25 \u2192 6.90.26)\r\n- Resolved an issue where block IDs caused empty `getField` responses.  \r\n\r\n## Municipio Theme (5.172.27 \u2192 5.172.31)\r\n- Fixed an issue with the target selector on navigation menu items related to the item wrapper.  \r\n- Images imported by the External Content feature are now hidden in the media library.  \r\n- Images in the External Content feature are now handled as objects for better consistency.  ",
            "url": "https://github.com/municipio-se/municipio-deployment/releases/tag/5.4.7",
            "publishedAt": "2025-09-30T12:57:46Z",
            "isPrerelease": false,
            "isDraft": false
        },
        {
            "title": "Release 5.4.6",
            "version": "5.4.6",
            "body": "# Release Notes\r\n\r\n## Active Directory API WP Integration (3.1.0 \u2192 3.1.5)\r\n- Fixed an issue that prevented users from logging in manually if their password wasn\u2019t stored before.  \r\n- Fixed an issue where accounts could not be synced in bulk.  \r\n- Updated the interval of bulk synchronization to one hour.  \r\n\r\n## API Alarm Integration (4.1.4 \u2192 4.1.6)\r\n- Changed alert level to automatically communicate to level 3 instead of level 2.  \r\n- Alarm list icons now use the icon select field.  \r\n\r\n## API Event Manager Integration (2.0.39 \u2192 2.0.40)\r\n- Updated the category dropdown to appear as checkboxes, allowing multi-select.  \r\n\r\n## Component Library (4.62.2 \u2192 4.62.4)\r\n- Allowed `isShortcode` as a known internal parameter that components silently accept.  \r\n- Fixed title markup in accordion titles to validate correctly.  \r\n\r\n## Modularity (6.90.21 \u2192 6.90.25)\r\n- Fixed pagination for post modules (URL escaping fix).  \r\n- Added support for extra CSS classes entered on block level in Gutenberg blocks.  \r\n- `getID` function now returns a valid ID when called on blocks (note: string return type now allowed).  \r\n- Normalized post headings in certain views to better fit the surrounding context.  \r\n\r\n## Municipio Theme (5.172.13 \u2192 5.172.27)\r\n- Updated the inline image component for better compatibility with PHP 8.4.  \r\n- Improved login time tracking.  \r\n- Ensured default roles are set correctly in multisite environments.  \r\n- Fixed issue with comment replies not working.  \r\n- General reliability and stability improvements.  \r\n\r\n## WordPress\r\n- Updated to WordPress 6.8.2.  \r\n\r\n## ACF Extended\r\n- Removed **ACF Extended**, which was deprecated in the previous release.  ",
            "url": "https://github.com/municipio-se/municipio-deployment/releases/tag/5.4.6",
            "publishedAt": "2025-09-30T07:16:25Z",
            "isPrerelease": false,
            "isDraft": false
        },
        {
            "title": "Release 5.4.5",
            "version": "5.4.5",
            "body": "## Algolia-index (3.2.3\u20263.2.4)\r\n- Refactoring to allow multiple providers to be used.  \r\n- In this case Typesense as a drop-in replacement of Algolia.\r\n\r\n## Api Alarm Integration (4.1.3\u20264.1.4)\r\n- Removes a trailing slash sanitization from api-url.  \r\n- Allows query params to be sent in resource url.\r\n\r\n## Api Event Manager Integration (2.0.38\u20262.0.39)\r\n- Allows rendering when no tags are present.\r\n\r\n## Component Library (4.60.1\u20264.62.2)\r\n- **fix(Date):** allow format override  \r\n- **feat(Nav): extended dropdown view**  \r\n  - Added support for extended dropdown in nav component.  \r\n  - New Blade templates: `content.blade.php`, `extended.blade.php`  \r\n  - New option: `isExtendedDropdown` in `nav.json`  \r\n  - Async children support and extended dropdown styling  \r\n- **fix(Person):** add missing class and other attributes to person component  \r\n- **fix(Hero):** allow video without content  \r\n- **fix(Image):** reduce calls to resolver when building container query data  \r\n- **fix(Image):** avoid calling resolver more than needed  \r\n- **refactor(Nav):** restructured nav view, moved logic into `content.blade.php`\r\n\r\n## Modularity (6.90.13\u20266.90.21)\r\n- Fixed issue where shortcodes could render a module view twice  \r\n- Made module base more testable  \r\n- Added recommendation for extension usage  \r\n- Fixed warnings about missing view key  \r\n- Improved handling of public taxonomies (only show public ones)  \r\n- Rewritten headings in accordion post module for better structure  \r\n- Fixed issue when removing choices in fields  \r\n- Fixed error with post argument type in certain cases  \r\n\r\n## Modularity Timeline (4.1.1\u20264.1.2)\r\n- Adds the ability to render as a sequential timeline without dates.\r\n\r\n## Municipio Theme (5.164.3\u20265.172.13)\r\n- Fixed occasion text handling for exhibitions  \r\n- Hide gallery title if no gallery in exhibitions  \r\n- Added custom archive date format for exhibitions  \r\n- Added Customizer option for extended dropdown menu  \r\n- Implemented on-demand image resizing  \r\n- Fixed flexible header search button styling  \r\n- Added bordered setting for drawer menu  \r\n- Fixed password-protected page markup error  \r\n- Added background color support for dropdown menus  \r\n- Fixed circular structure issue in menus  \r\n- Added controllers and views for Elementary School and Preschool  \r\n- Integrated events into Preschool and Elementary School  \r\n- Allowed selecting post field columns for archive list view  \r\n- Sorted taxonomy filter options as numbers if all are numeric  \r\n- Fixed event price error display  \r\n- Sideload all images in schema objects  \r\n- Fixed schools page crash caused by missing image ID  \r\n- Added missing translations  \r\n\r\n## Modularity Dynamic Guides (1.4.8\u20261.4.10)\r\n- Removes the requirement of having Acf Extended installed.",
            "url": "https://github.com/municipio-se/municipio-deployment/releases/tag/5.4.5",
            "publishedAt": "2025-09-22T12:38:14Z",
            "isPrerelease": false,
            "isDraft": false
        },
        {
            "title": "Release 5.4.4",
            "version": "5.4.4",
            "body": "## Municipio Theme (5.165.1)\r\n- Updates the **ImageConvert** feature to support adding additional conversion strategies in the future.  \r\n- Introduces a new **object caching system** in ImageConvert to prevent repeated attempts to convert images that have already been processed or failed previously.  \r\n- Implements a **conversion tracking system** that provides real-time knowledge of ongoing conversions, preventing multiple concurrent conversions of the same asset on the same request or across concurrent requests.  \r\n- Adds a **detailed logging system** to ImageConvert, enabling identification of performance issues related to images that fail to convert or are frequently reprocessed.  \r\n\r\n## Modularity (6.90.15)\r\n- Removes **ACF Extended** as a required plugin dependency.  \r\n\r\n## Deployment\r\n- Adds an updated version of **ACF Extended** to the main deployment procedure, ensuring compatibility with the latest release of the **ACF Pro** plugin.  ",
            "url": "https://github.com/municipio-se/municipio-deployment/releases/tag/5.4.4",
            "publishedAt": "2025-09-10T11:56:30Z",
            "isPrerelease": false,
            "isDraft": false
        },
        {
            "title": "Release 5.4.1",
            "version": "5.4.1",
            "body": "# Release Notes\r\n\r\nThis release focuses on upgrading the performance of the icon selector by replacing it with a custom field.  \r\nThis change decreases delivered DOM size in the admin interface, making the Gutenberg editor more performant.\r\n\r\n---\r\n\r\n## Municipio Theme (5.164.1)\r\n- Removes `PrefillIcon` class  \r\n- Implements replacement field for icon selector in all occurrences  \r\n- **Exhibition Event**\r\n  - Update exhibition event gallery position  \r\n  - Allow subtypes of Event schema to have `startDate` and `endDate` meta  \r\n  - Update position of date and place on exhibition event  \r\n  - Add missing expired event notice text  \r\n\r\n## Modularity (6.90.9)\r\n- Implements replacement field for icon selector in all occurrences  \r\n- Fixes an issue where post module could be saved without a selected view, causing a fatal error  \r\n\r\n## Acf Icon Field (0.2.42)\r\n- Introduces a new icon field providing a visual selector of Material icons  ",
            "url": "https://github.com/municipio-se/municipio-deployment/releases/tag/5.4.1",
            "publishedAt": "2025-09-02T10:59:40Z",
            "isPrerelease": false,
            "isDraft": false
        },
        {
            "title": "Release 5.4.0",
            "version": "5.4.0",
            "body": "# Release Notes\r\n\r\nThis release focuses on resolving issues with the previous release.  \r\nIt introduces **Vite** for compiling scripts and styles in **Municipio Theme** and **Styleguide**.\r\n\r\n---\r\n\r\n## Municipio Theme (5.163.9)\r\n- Adds a **Trashed page** for media items, allowing users to revert trashed files.\r\n- Replaced **Webpack** with **Vite** as a build system.\r\n- Enqueue new Vite-compiled files as **modules**.\r\n- Adds **ExhibitionEvent Schema** view.\r\n- Add **alt text** to emblem placeholder when an image is missing.\r\n- Allow **font/ namespace** when populating the font selector for custom fonts in customizer.\r\n- Ensure that images are correctly rendered in **Gutenberg editor**.\r\n- Removes some obsolete code related to **TinyMCE editor (plugins)**.\r\n- **Splide Core** is now compiled as a separate asset.\r\n- Update language file for **Swedish translation**.\r\n\r\n---\r\n\r\n## Styleguide (0.11.1312)\r\n- Updates to an **ESM compatible Leaflet MarkerCluster** that avoids monkeypatching of the global instance.\r\n- Update to new version of **Sass**, and uses **Vite** as build system.\r\n- **Slider steppers** are now unclickable, to meet clickable area size standards.\r\n- **Right alignment fix** for collection items.\r\n\r\n---\r\n\r\n## Component Library (4.60.0)\r\n- Links in **email addresses** now support **hyphens**.\r\n- Removes a direct call to a **WordPress function** in breadcrumb.\r\n- Do not include a link text if no link is found in **Card component**.\r\n- Adds a new modifier that places **link last** in collection items.\r\n\r\n---\r\n\r\n## ACF UX Collapse (2.0.7)\r\n- Declares a missing variable in **JavaScript**, preventing breakage in some cases.\r\n\r\n---\r\n\r\n## ACF OpenStreetMap Field (0.79.12)\r\n- Inactivates **block dragging**, to avoid issues with map.",
            "url": "https://github.com/municipio-se/municipio-deployment/releases/tag/5.4.0",
            "publishedAt": "2025-08-29T11:06:17Z",
            "isPrerelease": false,
            "isDraft": false
        },
        {
            "title": "Release 5.3.5",
            "version": "5.3.5",
            "body": "## Modularity Guides ([4.0.5](https://github.com/helsingborg-stad/modularity-guides/))\r\n* Converted javascript to typescript\r\n* Generating email content in the backend instead of frontend\r\n* New API to generate mail introduced\r\n* Transformer to group action items by subject\r\n* Updated all outdated external dependencies\r\n* Consolidated translations to separate class",
            "url": "https://github.com/municipio-se/municipio-deployment/releases/tag/5.3.5",
            "publishedAt": "2025-08-28T09:35:01Z",
            "isPrerelease": false,
            "isDraft": false
        },
        {
            "title": "Release 5.3.4",
            "version": "5.3.4",
            "body": "# Release Notes\r\n\r\n## Municipio (5.3.4)\r\nPatch release that refines appearance on popular functions.\r\n\r\n---\r\n\r\n## Algolia Search JS (3.3.5)\r\n- Fix an issue where images in search results were not hidden on mobile devices.\r\n\r\n---\r\n\r\n## Alarm Integration (4.1.3)\r\n- Adds a new module that renders alarms in a refined way.  \r\n- This module consolidates similar alarms.  \r\n- Old alarm module will be deprecated after user feedback.\r\n\r\n---\r\n\r\n## Attachment Revisions (3.0.8)\r\n- Fix build of CSS/JS file.\r\n\r\n---\r\n\r\n## Broken Link Detector (4.2.12)\r\n- Improve detection of broken internal links (on-site).\r\n\r\n---\r\n\r\n## Component Library (4.59.9)\r\n- Adds detection of incompatible HTML in slots (e.g., `<a>` tags in slot content on already linked components).  \r\n- Silences a warning in timeline component.  \r\n- Updates contact module with a new view option.  \r\n- Image rendering now falls back to a default value when aspect ratio cannot be resolved (16/9).  \r\n- Adds a new layout option for hero module.  \r\n- Adjusted rendering class to reduce the risk of intermittent broken markup.  \r\n- Fixes broken markup in logotype grid component.  \r\n- Support for displaying the heading above the image in card component.  \r\n- Support for showing a clickable button instead of linking the whole item in card component.  \r\n- Updates to file input:\r\n  - Accepted file types  \r\n  - Error handling  \r\n  - Accepted file sizes  \r\n  - Preview of uploaded data  \r\n- Link component now handles hyphens in links correctly.  \r\n- Remove/check availability of WP function in breadcrumb component.\r\n\r\n---\r\n\r\n## Modularity Like Posts (2.14.5)\r\n- Fix an issue that caused data fetch to not have the user ID available.\r\n\r\n---\r\n\r\n## Modularity (6.90.0)\r\n- New layout option for contacts display (#896).  \r\n- Icon placed to the right in collection item (#913).  \r\n- Ensure blog name is added when appropriate in posts module (#903).  \r\n- Mitigate warnings in various locations.  \r\n- \"Read more\" fix with correct handling of default value (#893).  \r\n- Shortcodes are missing `<p>` tags for text module (#915).  \r\n- Allow map providers in CSP (#914).  \r\n- Posts module: remove a custom tag sanitizer (#894).  \r\n- Cleanup contacts module, making it more readable (#907).  \r\n- Refactor the **Edit Modules** button to a more standard implementation in block editor.\r\n\r\n---\r\n\r\n## Modularity Open Street Map (2.7.8)\r\n- Fixes a rendering issue causing `&amp;` to render as clear text.  \r\n- Improves performance in Gutenberg editor.\r\n\r\n---\r\n\r\n## ACF OpenStreetMap Field (0.79.11)\r\n- Improves performance in Gutenberg editor.\r\n\r\n---\r\n\r\n## Municipio Theme (5.159.18)\r\n- Common Field Group now resolves select fields that return labels instead of values correctly on subsites in a network.  \r\n- Fix to prevent images from being parsed more than once in content.  \r\n- Adds more language strings and translations.  \r\n- New feature: **Accessibility Declaration** (shareable across a whole network via Common Field Group).  \r\n- Fixes styling on the \"collapsible search\" feature in header.  \r\n- Introduces custom colors to a color palette for reuse throughout Municipio.  \r\n- Inline images now properly support captions.  \r\n- Allow more file formats:\r\n  - Variants of existing MIME types (e.g., `dwg`, `dotx`).  \r\n  - More file formats by default for editors/administrators.  \r\n- Fixes an issue where theme options were unavailable on translated sites in admin UI.  \r\n- Fixes an issue where URLs showed instead of labels on error pages.  \r\n- Fixes an issue where Table of Contents displayed even if the feature was turned off.  \r\n- Fixes an issue causing pages with Table of Contents to scroll to first section on load.  \r\n- Graphical adjustments on featured images in article layouts.  \r\n- Added validation on `getImage` function in post object to prevent broken image display.  \r\n- Fix Blade engine initialization causing intermittent rendering anomalies.\r\n\r\n---\r\n\r\n## Schema Posts\r\n- Creates fixed taxonomies for posts using schema.  \r\n- Posts from external sources do not allow editing schema data.  \r\n- Updated UI for editing local posts using schema type.  \r\n- Mirrored posts now link to the original URL instead of faking a local version.\r\n\r\n---\r\n\r\n## Focus Point (0.2.5)\r\n- Fixes general issues with JavaScript execution.  \r\n- Resolved an issue with JS loading that could crash WordPress Customizer.\r\n\r\n---\r\n\r\n## WP Security (1.8.3)\r\n- Added an admin interface to allow users to add custom domains to CSP policy.  \r\n- Improved domain handling, preserving port numbers during extraction.  \r\n- Improved content parsing to automatically add domains not detected before.",
            "url": "https://github.com/municipio-se/municipio-deployment/releases/tag/5.3.4",
            "publishedAt": "2025-08-21T13:05:44Z",
            "isPrerelease": false,
            "isDraft": false
        }
    ]
}
