{
    "source": "releases",
    "sourceScope": "GitHub",
    "generatedAt": "2026-04-27T22:19:29+00:00",
    "count": 76,
    "pageSize": 10,
    "pageNumber": 3,
    "pageCount": 8,
    "repository": {
        "owner": "municipio-se",
        "name": "municipio-deployment",
        "fullName": "municipio-se/municipio-deployment",
        "description": "",
        "url": "https://github.com/municipio-se/municipio-deployment"
    },
    "items": [
        {
            "title": "Release 5.3.3",
            "version": "5.3.3",
            "body": "# Release Notes\r\n\r\n## Component Library (4.54.6)\r\n\r\n### Fixes\r\n- Corrected sanitization of HTML IDs in the BaseController to prevent potential rendering issues.\r\n- Fixed aspect ratio issues for term icons to ensure consistent display.\r\n- Resolved a styling issue related to typography when using shortcodes in context.\r\n\r\n### Improvements and Refactoring\r\n- Refactored slider button functionality for better clarity and maintainability.\r\n- Removed unnecessary constructor requirement from `ImageFocusResolverInterface`, simplifying its implementation.\r\n\r\n---\r\n\r\n## Algolia Index JS Searchpage (3.3.4)\r\n\r\n### Features\r\n- Added a new **Typesense adapter** for search, allowing integration with the Typesense engine for improved relevance and performance.\r\n- Added additional domains to the **Content Security Policy (CSP)** configuration to ensure required external services are allowed and function correctly.\r\n\r\n---\r\n\r\n## Alarm Integration (4.0.11)\r\n\r\n### Features\r\n- Adds the ability to display an **automatic fire alarm banner** on each page when a fire alarm is set to high.\r\n\r\n---\r\n\r\n## Modularity Like Posts (2.14.4)\r\n\r\n### Fixes and Improvements\r\n- Prevented sticky posts from being retrieved when not intended.\r\n- Fixed an issue where only allowed post types should be set.\r\n- Improved markup handling to prevent rendering issues in views.\r\n- Fixed a bug where passing an empty list of posts could cause Blade template errors.\r\n- Removed unnecessary data (like `blogId`) from being passed to views.\r\n- Cleaned up legacy code, including the removal of unused `getPost()` calls and debug statements.\r\n\r\n### Refactoring\r\n- Improved support for handling private posts across multiple blogs.\r\n- Refactored list and collection views for better performance and maintainability.\r\n- Replaced internal permalink logic with `getPermalink()` for consistency.\r\n- Streamlined post type validation logic and corrected `blogId` usage.\r\n\r\n### Housekeeping\r\n- Added inline code comments for clarity.\r\n- Removed outdated or redundant code and comments.\r\n\r\n---\r\n\r\n## WP Security (1.6.10)\r\n\r\n### New Features\r\n- Split the logic into separate resolvers for better structure and maintainability.\r\n- Introduced support for a **CSP (Content Security Policy) hook** for flexible CSP configuration.\r\n- Added support for the **Permissions Policy** header.\r\n- Introduced a PHP-based test suite and build validation.\r\n\r\n### Fixes and Improvements\r\n- Improved DOM parsing to detect and extract relevant elements, including images inside `<script>` tags.\r\n- Better handling of inline scripts and updated test coverage.\r\n- Simplified and cleaned up test cases, fixtures, and attribute handling.\r\n- Improved normalization of parsed content via an internal normalizer.\r\n- Enhanced filtering of specific element types and attributes.\r\n- Adjusted handling of `<a>` tags (included but without using `href` value).\r\n- Resolved issues with malformed attributes, DOM element checks, and edge cases.\r\n- Allowed `unsafe-eval` in scripts to avoid CSP conflicts.\r\n- Added filter support and documentation for better CSP customization.\r\n- Multiple minor fixes and code cleanup (e.g., typo corrections, `.gitignore` updates).\r\n\r\n### Documentation\r\n- Updated README and added internal comments for clarity and maintainability.\r\n\r\n---\r\n\r\n## Modularity (6.87.7)\r\n\r\n### New Features\r\n- Added **user group visibility restrictions** for posts.\r\n- Introduced a new **hero layout** for enhanced presentation.\r\n- Posts module now uses a dedicated **image retrieval method** for better consistency.\r\n\r\n### Fixes and Improvements\r\n- Fixed pagination failure in post modules.\r\n- Corrected post status filtering.\r\n- Resolved bug with mocked user IDs in place of real ones.\r\n- Fixed missing blog name in the news list view.\r\n- Sticky posts are now correctly prioritized in multisite queries.\r\n- Sanitized post excerpts by removing unwanted `<a>` tags.\r\n- Used GMT post dates for accurate date comparisons.\r\n- Fixed malformed URLs in post archive filters.\r\n- Addressed language detector crash for large modules.\r\n- Fixed CSV module update failures.\r\n- Corrected shortcode context detection for rendering.\r\n\r\n### Refactoring and Styling\r\n- Updated file list styles to use heading font.\r\n- Changed input type to `search` and added icon for better UX.\r\n- Refactored Splide slider custom button implementation.\r\n\r\n### Development & Dependency Updates\r\n- Upgraded `league/commonmark` for compatibility and security.\r\n- Updated ACF service dependency to version 1.1.0.\r\n\r\n---\r\n\r\n## Municipio Theme (5.156.2)\r\n\r\n### New Features\r\n- **Table of Contents (ToC):** Auto-generates a clickable index for better navigation of long content.\r\n- **Error Page Customizer:** Customize 401, 403, and 404 error pages with headings, images, buttons, and toggleable error codes.\r\n- **Schema-specific Field Control:** Disable standard fields for specific schema types.\r\n- **Post Image Retrieval Method:** More reliable rendering by retrieving images directly from post objects.\r\n\r\n### Fixes and Improvements\r\n- **Image Rendering Across Blogs:** Sizes now resolve correctly when fetching images from other blogs.\r\n- **WYSIWYG Image Replacement:** Preserves clickable links when replacing images in rich text.\r\n- **Breadcrumbs Accuracy:** Improved archive page detection for correct breadcrumb paths.\r\n- **Menu Item Indicators:** Menu items with children now show correct visual cues.\r\n- **Hidden Menu Visibility:** Hidden pages are no longer shown to authenticated users.\r\n- **Navigation JS:** Improved handling of nonce values for safer scripting.\r\n- **TinyMCE Plugin Fix:** External plugins now load correctly in the editor.\r\n- **YouTube Link Consistency:** Defaults to `www.` domain for better reliability.\r\n- **Breadcrumb Archive Links:** Fixed broken archive links in breadcrumbs.\r\n- **Mirrored Posts:** Featured images now show properly for multisite mirrored posts.\r\n- **Embed Caching:** oEmbed cache clears correctly to prevent stale content.\r\n\r\n### Developer and Internal Enhancements\r\n- **ImageMagick Transparency Fix:** PNGs now converted with GD library to preserve alpha transparency.\r\n- **Improved Image Conversion Performance:** More memory and processing time allocated to prevent crashes.\r\n- **Simplified Heading Styles:** Removed per-module heading style configuration.\r\n- **Customizer Cleanup:** Refactored card and layout sections for clarity.\r\n- **Build Tools Update:** Updated `browsersync` and `webpack-dev-server` for stability.\r\n- **Codebase Refactoring:** Refactored Table of Contents and post decorators for maintainability.\r\n- **Test Maintenance:** Marked incomplete tests in preparation for larger refactor.\r\n\r\n### Other\r\n- Adds support for **FrankenPHP/Caddy** and quickstart with **SQLite server**.",
            "url": "https://github.com/municipio-se/municipio-deployment/releases/tag/5.3.3",
            "publishedAt": "2025-07-03T10:54:55Z",
            "isPrerelease": false,
            "isDraft": false
        },
        {
            "title": "Release 5.3.2",
            "version": "5.3.2",
            "body": "# Municipio 5.3.2\r\n\r\n**Municipio 5.3.2** is a patch release, fixing some minor bugs in the previous release.\r\n\r\n## Modularity\r\n\r\n- Fixes a typing error on query param for post module pagination.\r\n- Fixes pagination error on posts module.\r\n- Fixes a migration issue where private modules were ignored by the migration script.",
            "url": "https://github.com/municipio-se/municipio-deployment/releases/tag/5.3.2",
            "publishedAt": "2025-06-11T12:53:14Z",
            "isPrerelease": false,
            "isDraft": false
        },
        {
            "title": "Release 5.3.1",
            "version": "5.3.1",
            "body": "## Municipio Theme (5.153.5)\r\n\r\n- New Flexible Header component that displays a button to the user's group homepage, if it exists.\r\n- Fixed SEO redirect permalink fetching when using mirrored post objects.\r\n- Fixed attachment pages not redirecting to real files by default.\r\n- Fixed `fileExists` cache not caching files that were not found.\r\n\r\n## Component Library (4.54.1)\r\n\r\n- Fixed comment markup for the author by removing disallowed nesting in `<span>` elements.\r\n\r\n## Modularity (6.84.1)\r\n\r\n- Added an option to the Posts module allowing editors to force external links to open in a new window.\r\n- Posts module now supports pagination in multisite queries.\r\n- Fixed a type comparison error in network permalink resolving in the Posts module.\r\n- Module fragment cache now respects query parameters that may affect the cached state.\r\n\r\n## Modularity Like (2.14.1)\r\n\r\n- Patched the ability to unlike a post across networks.\r\n\r\n## Styleguide (0.11.1277)\r\n\r\n- Compressed lists now have a smaller font size and icon by default.\r\n\r\n## WP Security (1.3.4)\r\n\r\n- Disabled automatic CSP due to issues it caused on search pages.",
            "url": "https://github.com/municipio-se/municipio-deployment/releases/tag/5.3.1",
            "publishedAt": "2025-06-11T09:29:41Z",
            "isPrerelease": false,
            "isDraft": false
        },
        {
            "title": "Release 5.3.0",
            "version": "5.3.0",
            "body": "## Wp Security (1.1.0)\r\n\r\nA brand new security plugin has been developed in order to improve WordPress security. This plugin lacks settings but applies some automated headers and other security features:\r\n\r\n- Generic login error messages (prevents user enumeration)\r\n- Generic password reset responses (prevents user enumeration)\r\n- HTTP Strict Transport Security (HSTS) headers if SSL is detected\r\n- Automatic CORS configuration (defaults to current site; additional headers can be set with `.htaccess` if needed)\r\n- Subresource Integrity (SRI) for scripts and styles stored locally on disk\r\n- XML-RPC is automatically disabled\r\n- Improved comment sanitization\r\n- Automatic Content Security Policy (CSP) based on current output (no manual configuration needed)\r\n\r\n> **Note:** This is designed as a **MU-plugin**, and cannot be turned off.\r\n\r\n---\r\n\r\n## Municipio Theme (5.152.0)\r\n\r\n- Adds a place search REST endpoint to populate OpenStreetMap with query results\r\n- Improved feature to mirror posts from other sites in the network, including canonical tags and schema data\r\n- Schema data forms improved for schema posts; now utilizing a form factory\r\n- Sanitization of query parameters in the REST render endpoint for menu generation\r\n- Post visibility now respected on post type archive pages when a page is assigned as the archive\r\n- Automatic page tree menus now display private pages if the user is logged in\r\n- Improved custom font rendering by respecting native font-weight\r\n- Attachment pages now redirect to the actual file by default\r\n- Adds customizer settings for breadcrumb display\r\n\r\n---\r\n\r\n## Modularity (6.81.11)\r\n\r\n- Fixes HTML syntax error when modules were rendered inline in the Gutenberg editor\r\n- Removes inline templates in the admin panel (detected automatically)\r\n- Removes insecure JavaScript in the table module that was fetched from a remote service (DataTables)\r\n- Improves output sanitation in the text module\r\n- Mitigates two warnings in the post module regarding archive link placement\r\n- Fixes population of schema select dropdown in the posts module\r\n- Adjusts Text module heading size to align with other modules\r\n- Post module now correctly renders taxonomies\r\n- Adds settings to display module usage in list view, edit view, and frontend edit view\r\n\r\n---\r\n\r\n## Modularity Like (2.14.0)\r\n\r\n- Adds ability to like posts across pages in a network installation\r\n\r\n---\r\n\r\n## Open Street Map (2.7.5)\r\n\r\n- Now uses `PostObjectInterface` schema properly according to specification\r\n\r\n---\r\n\r\n## Simplify Admin Menus (1.3.0)\r\n\r\n- New plugin added to simplify the WordPress admin panel\r\n\r\n---\r\n\r\n## Event Manager Integration (2.0.32)\r\n\r\n- Fixes timezone error when rendering dates in some contexts (specifically archive lists)\r\n\r\n---\r\n\r\n## Algolia JS Searchpage Addon (3.3.2)\r\n\r\n- Declutters rendering by removing number of results and query from the response message (now only rendered in the input field)\r\n\r\n---\r\n\r\n## Active Directory Integration (3.1.0)\r\n\r\n- Sanitizes all `$_GET` and `$_POST` variables handled in the authentication process to prevent malicious requests\r\n\r\n---\r\n\r\n## Component Library (4.54.0)\r\n\r\n- **Breadcrumb:** Adds settings to show prefix label and hide home icon\r\n- **Timeline:** Adds support for sequential mode (without date/time) and current/active step\r\n\r\n---\r\n\r\n## Other\r\n\r\n- Added `publiccode.yml` declaration\r\n- Updated error page to improve rendering of error messages\r\n- Added `install.html` to remove list when deployment runs\r\n\r\n---\r\n\r\n## Unreleased\r\n\r\nThis is not yet released; we are currently working on documentation and release notes. This is public since we always try to be as transparent as possible.",
            "url": "https://github.com/municipio-se/municipio-deployment/releases/tag/5.3.0",
            "publishedAt": "2025-06-10T08:05:21Z",
            "isPrerelease": false,
            "isDraft": false
        },
        {
            "title": "Release 5.2.7",
            "version": "5.2.7",
            "body": "### Municipio 5.2.7\r\n- Fixes schema data issues.\r\n- Resolves a performance issue related to large lead texts.\r\n\r\n### Municipio (5.146.3)\r\n- Removes the `force_balance_tags` function, which was previously used to filter large amounts of text and avoid empty `<p>` tags.\r\n  - This practice is **not recommended** by WordPress documentation.\r\n\r\n### Styleguide (0.11.1251)\r\n- Reverts accordion animations that were mistakenly merged.\r\n\r\n### Component Library (4.52.13)\r\n- Removes XML headers from plus/minus reactive icons.\r\n\r\n### OpenStreetMap (2.7.5)\r\n- Adds a **hotfix** for issues with `lat/lng` data on the \"place\" schema type.\r\n  - A **permanent fix** will be included in the next release.",
            "url": "https://github.com/municipio-se/municipio-deployment/releases/tag/5.2.7",
            "publishedAt": "2025-04-29T13:31:43Z",
            "isPrerelease": false,
            "isDraft": false
        },
        {
            "title": "Release 5.2.6",
            "version": "5.2.6",
            "body": "### WordPress Core (6.8)\r\n- Update WordPress core to version 6.8.\r\n\r\n### Modularity (6.81.0)\r\n- Adds the option to display a link to the archive before the post list in the post module.\r\n- Authors can now set a custom label for the archive button.\r\n\r\n### Municipio Theme (5.144.9)\r\n- Taxonomy terms are now shown on archive and single post pages.\r\n- Reintroduces the progress bar data on the project schema type.\r\n- Fixes an issue with Quicklinks placement that caused the entire page to render incorrectly.\r\n- Container block now supports setting border radius and shadows.\r\n- Fixes an issue where lat/lng values were cached at runtime, causing all geo coordinates to appear in the same location.\r\n\r\n### Modularity Form Builder (3.4.11)\r\n- A default label will not be applied when the upload button label is set to empty.\r\n\r\n### Component Library (4.52.12)\r\n- **Fixed:** Headings get different styling even though they have the same heading level.\r\n- Fileinput now handles `max file limit = -1` as the maximum allowed number of files (50).\r\n\r\n### Styleguide (0.11.1251)\r\n- Correct button colors in the primary menu to align with colors on link items.\r\n\r\n### Visit Custom Posttypes Taxonomies (2.0.6)\r\n- Reflects name changed filter in Municipio handling quicklinks positioning.",
            "url": "https://github.com/municipio-se/municipio-deployment/releases/tag/5.2.6",
            "publishedAt": "2025-04-28T12:07:24Z",
            "isPrerelease": false,
            "isDraft": false
        },
        {
            "title": "Release 5.2.5",
            "version": "5.2.5",
            "body": "# Municipio 5.2.5\r\n\r\n**Release type:** Hotfix  \r\n**Summary:** Addresses various issues introduced in version 5.2.4.\r\n\r\n---\r\n\r\n## Alarm Integration (4.0.9)\r\n\r\n- Updates to the latest version of the Alarm Manager integration.\r\n  - Corrects colors and labels for warnings in the fire ban information module.\r\n\r\n---\r\n\r\n## Municipio Theme (5.142.7)\r\n\r\n- Adds a missing constructor parameter in the `E[NNN]` controller.  \r\n  \u27a4 This previously caused a fatal error on locked pages.\r\n- Defaults to `.woff` font format if the font type cannot be resolved.  \r\n  \u27a4 Most browsers support both `.woff` and `.woff2` when `.woff` is declared.\r\n\r\n---\r\n\r\n## ACF OpenStreetMap Field (0.79.10)\r\n\r\n- Fixes an issue where data could not be saved due to an unfired ACF hook.\r\n\r\n---\r\n\r\n## Component Library (4.52.10)\r\n\r\n- Ensures sliders with a single slide are displayed.  \r\n  \u27a4 Bypasses default Splide CSS when sliders haven't initialized.\r\n\r\n---\r\n\r\n## WPMU Focus Point (0.2.3)\r\n\r\n- Renames CSS and style file hooks to namespace assets in the global scope.",
            "url": "https://github.com/municipio-se/municipio-deployment/releases/tag/5.2.5",
            "publishedAt": "2025-04-16T11:28:09Z",
            "isPrerelease": false,
            "isDraft": false
        },
        {
            "title": "Release 5.2.4",
            "version": "5.2.4",
            "body": "## Municipio Theme (5.142.4)\r\n\r\n- Adds ability to indent vertical menus (drawer, sidebar). Enabled via Customizer.  \r\n  _(Contributed by Michael Claesson @ Consid)_\r\n- Adds option to choose icon type (caret or plus/minus) for vertical menus in the Customizer.  \r\n  _(Contributed by Michael Claesson @ Consid)_\r\n- Adds support for showing a \"current language\" button in language menus (configured per menu).  \r\n  _(Contributed by Michael Claesson @ Consid)_\r\n- Customizer settings now apply on AJAX requests for re-rendering components.\r\n- Image focus points can now be set in the media library. These act as defaults when the image contract is used.\r\n- Fixes CSS references for locally uploaded fonts.\r\n\r\n---\r\n\r\n## Modularity (6.77.2)\r\n\r\n- Improves `aria-labelledby` references in the Posts module.\r\n- Image module now properly implements `ImageInterface`.  \r\n  \u27a4 As a result, the ability to select image size has been removed.\r\n- Accordion module:  \r\n  \u27a4 Now supports spaced sections and headings outside the card.  \r\n  _(Contributed by Michael Claesson @ Consid)_\r\n- Adds support for download icons and additional file type icons.  \r\n  _(Contributed by Michael Claesson @ Consid)_\r\n\r\n---\r\n\r\n## Modularity Forms (3.4.10)\r\n\r\n- Adds new file and image upload fields.\r\n\r\n---\r\n\r\n## Event Manager Integration (2.0.31)\r\n\r\n- Adds support for the new file upload field when uploading an event image.\r\n\r\n---\r\n\r\n## Component Library (4.52.9)\r\n\r\n- Adds animated icons (on `aria-pressed`) for plus/minus and hamburger/close symbols.\r\n- Refactors `fileinput` and `imageinput` field components.\r\n- Introduces `IconSection` wrapper component.  \r\n  \u27a4 `iconSection` renamed to `IconSection__item` and must now be used within the wrapper.\r\n\r\n---\r\n\r\n## OpenStreetMap Field (0.79.8)\r\n\r\n- Adds option to have filters open by default.\r\n- Fixes rendering issues in Gutenberg.\r\n\r\n---\r\n\r\n## Styleguide (0.11.1251)\r\n\r\n- Updates third-party slider library **Splide** to the next major version.\r\n- Refactors `fileinput` and `imageinput` field components.\r\n\r\n---\r\n\r\n## Algolia Index (3.2.3)\r\n\r\n- Ensures excerpts are properly sanitized before storing in the Algolia index.",
            "url": "https://github.com/municipio-se/municipio-deployment/releases/tag/5.2.4",
            "publishedAt": "2025-04-15T14:27:06Z",
            "isPrerelease": false,
            "isDraft": false
        },
        {
            "title": "Release 5.1.0",
            "version": "5.1.0",
            "body": "## Version 5.1.0  \r\n\r\nVersion 5.1.0 is a patch release for version 5.0.2, fixing some minor issues. This release is designed as a transition release for a plugin switch regarding cookie notices.  \r\n\r\n<!--more-->  \r\n\r\nWe have decided to phase out the [Cookies and Content Security Policy](https://wordpress.org/plugins/cookies-and-content-security-policy/) plugin in favor of [Pressidium Cookie Consent](https://wordpress.org/plugins/pressidium-cookie-consent/).  \r\n\r\n### Municipio Theme (5.129.12)  \r\n\r\n- Sites that are using a network subfolder structure now link the logotype to the main site ID instead of the current site.  \r\n- Fixes an issue with date handling.  \r\n- Fixes a fatal error when emptying the global notices configuration panel.  \r\n- Fixes a date issue (unformatted dates) in the archive type \"list\" for some columns.  \r\n- Fixed ordering issues for posts with identical date-time values by forcing the query to fall back on ascending order.  \r\n\r\n### Modularity (6.67.7)  \r\n\r\nThe notice module now supports (thanks to Consid and Alings\u00e5s Kommun):  \r\n\r\n- Action buttons  \r\n- Placement of action buttons  \r\n- Dismissable notices  \r\n\r\n### Component Library (4.48.3)  \r\n\r\n- The action button in the notice component can now be placed \"aside\" or \"below\" (thanks to Consid and Alings\u00e5s Kommun).  \r\n- Linked cards will now have a truncated version of the content in the card to shorten the reading time of links.  \r\n\r\n### Styleguide (0.11.1224)  \r\n\r\n- The signature component has been modified to resolve excessive spacing on edges.  \r\n\r\n### Cookies and Content Security Policy (2.24)  \r\n\r\n- This plugin is scheduled to be removed from the install in the upcoming minor release.  \r\n\r\n### Pressidium Cookie Consent (1.7.1)  \r\n\r\n- This plugin has been added to the install. It will need to be configured before use.  ",
            "url": "https://github.com/municipio-se/municipio-deployment/releases/tag/5.1.0",
            "publishedAt": "2025-02-13T07:42:42Z",
            "isPrerelease": false,
            "isDraft": false
        },
        {
            "title": "Release 5.0.2",
            "version": "5.0.2",
            "body": "Version 5.0.2 is a patch release for version 5.0.1, fixing some minor issues that have been identified since the last release.\r\n\r\n### Municipio Theme (5.129.4)\r\n\r\n- **Bugfix:** Refined how timestamps are fetched in archives.\r\n- **Bugfix:** Refined how timestamps are fetched in singular pages.\r\n- **Bugfix:** Fixed ordering issues for posts with identical date-time values by adding an additional `ORDER BY ID` to date queries.\r\n- **Chore:** Adds a template & instructions for generating feature documentation with a LLM.\r\n- **Bugfix:** Resolves some issues with mobile adaption of collapsible search view.\r\n\r\n<sub>*Due to the overhaul of dates; events may have to be adjusted to your preference since the date badge has been hardcoded for this post type in some locations.*</sub>\r\n\r\n### Modularity (6.67.4)\r\n\r\n- **Feature:** Removed the option to specify the source of the post date. It will now automatically match the archive view setting from Municipio.\r\n- **Posts Module Enhancements:**\r\n  - Improved handling of sticky posts and pagination in `GetPosts.php`, addressing potential issues with post counts and page limits. Sticky posts are now correctly merged and sorted.\r\n  - Refactored post preparation and data handling in `Posts.php` and `AbstractController.php`, including adding sticky post data and default values for post objects. Highlighting logic was moved to a dedicated method.\r\n  - Updated template controllers (`ExpandableListTemplate.php`, `ListTemplate.php`) and views (`features-grid.blade.php`, `grid.blade.php`, `index.blade.php`, `news.blade.php`, `segment.blade.php`) to use the new post data structure and handle sticky posts correctly. Added `data-js-item-id` and `attributeList` to post elements for better tracking and extensibility.\r\n  - Modified partials (`box.blade.php`, `collection-item.blade.php`, `news-item.blade.php`) to utilize the updated post data and attributes.\r\n  - Module is now resolving event timestamps correctly. If multiple occasions are resolved, the closest date in the future will be used. If the event is passed, the last will be used.\r\n- **Search Module Update:** Adjusted button styling in `search.blade.php`.\r\n\r\n### Styleguide (0.11.1220)\r\n\r\n- **Bugfix:** Fix alignment in news items vertically.\r\n\r\n### Component Library (4.47.11)\r\n\r\n- **Block Component Enhancements:**\r\n  - Added support for date arrays and date badges in `Block.php`, `block.blade.php`, and `block.json`. Ratio class added. Content check added.\r\n\r\n- **Card Component Enhancements:**\r\n  - Added support for date arrays and date badges in `Card.php` and `card.json`. Added `has-datebadge` class.\r\n  - Updated date and date badge components in `components/date.blade.php` and `components/datebadge.blade.php` to handle date arrays.\r\n\r\n- **Date Component Overhaul:**\r\n  - Completely refactored the `Date` component (`Date.php`, `date.blade.php`) for improved date handling, formatting, and time since/until calculations. Introduced `DateFormatter`, `TimeSinceFormatter`, and `DateConfig` classes for better organization and maintainability. Added error handling for invalid dates. Supports `nowLabel`, `timeNowCap`, and date format setting.\r\n  - Added `DateConfig.php` to handle date formatting configuration.\r\n  - Added `DateFormatter.php` to handle localized date formatting.\r\n  - Added `TimeSinceFormatter.php` to handle time since calculations.\r\n\r\n- **News Item Component Enhancements:**\r\n  - Added support for date arrays in `NewsItem.php` and `newsItem.json`. Added standing class.\r\n  - Updated date partial in `partials/date.blade.php` to handle date arrays.\r\n\r\n- **Type Hinting Error Handling:** Improved error handling for type hinting issues in `Register.php`, excluding `lang` from the check.\r\n\r\n### Algolia Index (3.2.1)\r\n\r\n- A patch has been implemented to correctly remove content in `<style>` and `<script>` tags from indexed content.",
            "url": "https://github.com/municipio-se/municipio-deployment/releases/tag/5.0.2",
            "publishedAt": "2025-02-10T12:25:35Z",
            "isPrerelease": false,
            "isDraft": false
        }
    ]
}
